Master
…
\(\hat{\beta}\approx0.07\) goals per match, p < 0.05 (statistically significant).

Suggests red-card matches are slightly higher-scoring after controlling for league and team strength.

Still ignores when the card occurred and within-match causality.

# Regression finds statistically significant, positive effect of approximately 
# 0.07 more goals for matches that had at least one red card.
tidy(
    lm(total_goals ~ has_red_card + competition + home_team + away_team + 
           season + season:day_in_season, 
       data = df_simple)
)

# A tibble: 512 × 5
   term                               estimate std.error statistic  p.value
   <chr>                                 <dbl>     <dbl>     <dbl>    <dbl>
 1 (Intercept)                          2.65      0.416     6.37   1.92e-10
 2 has_red_cardTRUE                     0.0698    0.0313    2.23   2.58e- 2
 3 competition2. Bundesliga, Germany    0.0411    0.694     0.0593 9.53e- 1
 4 competitionChampionship, England    -0.292     0.656    -0.445  6.56e- 1
 5 competitionLeague One, England      -0.219     0.643    -0.341  7.33e- 1
 6 competitionLeague Two, England      -0.597     0.633    -0.943  3.46e- 1
 7 competitionPremier League, England  -0.277     0.670    -0.414  6.79e- 1
 8 competitionLigue 1, France           0.0501    0.122     0.412  6.81e- 1
 9 competitionPrimera, Spain            0.874     0.670     1.30   1.92e- 1
10 competitionSerie A, Italy           -0.293     0.659    -0.445  6.57e- 1
# ℹ 502 more rows
…
# Check over-dispersion (0.976, so close to 1 --> Poisson distributional 
# assumption is fine, do not need to switch to negative binomial)
sum(residuals(pois_fit, type = "pearson")^2) / pois_fit$df.residual

[1] 0.9756669

# Exponentiated coefficients (controlling for competition, teams and season 
# effects games with a red card have 2.6% more goals (statistically 
# significant))
tidy(pois_fit, exponentiate = TRUE)

# A tibble: 512 × 5
   term                               estimate std.error statistic       p.value
   <chr>                                 <dbl>     <dbl>     <dbl>         <dbl>
 1 (Intercept)                           2.66     0.161     6.09   0.00000000114
 2 has_red_cardTRUE                      1.03     0.0119    2.19   0.0284       
 3 competition2. Bundesliga, Germany     1.01     0.262     0.0317 0.975        
 4 competitionChampionship, England      0.870    0.265    -0.526  0.599        
 5 competitionLeague One, England        0.896    0.260    -0.422  0.673        
 6 competitionLeague Two, England        0.774    0.256    -1.00   0.317        
 7 competitionPremier League, England    0.876    0.270    -0.489  0.625        
 8 competitionLigue 1, France            1.02     0.0478    0.357  0.721        
 9 competitionPrimera, Spain             1.35     0.249     1.22   0.222        
10 competitionSerie A, Italy             0.891    0.255    -0.454  0.650        
# ℹ 502 more rows
…
# Cluster-robust SEs at the match level to get correct inference 
# (since "pre" and "post" observations are correlated for each match)
# Period indicator (pre/post) is statistically significant on the 5% level
# (Output hidden since too many coefficients)
invisible(
    coeftest(lmCR, vcov = vcovCL(lmCR, cluster = ~ game_id))
)

# Omitted team fixed effects for readability
tidy(lmCR) |> 
    filter(!str_detect(term, "team"))

# A tibble: 21 × 5
   term                                estimate std.error statistic  p.value
   <chr>                                  <dbl>     <dbl>     <dbl>    <dbl>
 1 (Intercept)                         0.0196   0.0132        1.49  1.37e- 1
 2 periodpost                          0.0126   0.000954     13.2   1.48e-38
 3 red_card_minute                     0.000145 0.0000285     5.09  3.74e- 7
 4 competition2. Bundesliga, Germany   0.00435  0.0225        0.193 8.47e- 1
 5 competitionChampionship, England   -0.0160   0.0285       -0.562 5.74e- 1
 6 competitionLeague One, England     -0.0151   0.0278       -0.545 5.86e- 1
 7 competitionLeague Two, England     -0.0203   0.0271       -0.748 4.54e- 1
 8 competitionPremier League, England -0.0281   0.0295       -0.955 3.40e- 1
 9 competitionLigue 1, France          0.00986  0.00449       2.20  2.82e- 2
10 competitionPrimera, Spain           0.00378  0.0284        0.133 8.94e- 1
# ℹ 11 more rows
…
# The exponentiated coefficient for the period indicator (pre/post) is equal to
# 1.55, meaning that once a red card is shown the chance of a goal in any given
# minute rises by 55%
# Omitted team fixed effects for readability
tidy(mod_pois, exponentiate = TRUE) |>
    filter(!str_detect(term, "team"))

# A tibble: 21 × 5
   term                               estimate std.error statistic  p.value
   <chr>                                 <dbl>     <dbl>     <dbl>    <dbl>
 1 (Intercept)                          0.0166  0.366     -11.2    4.53e-29
 2 periodpost                           1.55    0.0296     14.9    5.31e-50
 3 red_card_minute                      1.00    0.000723    5.54   3.00e- 8
 4 competition2. Bundesliga, Germany    1.14    0.634       0.201  8.41e- 1
 5 competitionChampionship, England     1.11    0.698       0.152  8.79e- 1
 6 competitionLeague One, England       1.18    0.675       0.244  8.07e- 1
 7 competitionLeague Two, England       0.916   0.658      -0.133  8.94e- 1
 8 competitionPremier League, England   0.777   0.726      -0.347  7.29e- 1
 9 competitionLigue 1, France           1.14    0.124       1.03   3.01e- 1
10 competitionPrimera, Spain            0.956   0.640      -0.0697 9.44e- 1
# ℹ 11 more rows
